

 ============================================ Cron Start >__store_recruiters_data... Date[11:16:41 am 30-05-2017] ===================================== 


 ======== Currently importing temp_592d5499bcb71.xls file ===== 

 ======== End of temp_592d5499bcb71.xls file ===== 

 ======== Duration : "2.3567" ===== 

 ============================================= Cron End >__store_recruiters_data... Date[11:16:44 am 30-05-2017] =========================== 


